<?xml version="1.0" encoding="UTF-8"?>
<svg width="24px" height="24px" viewBox="0 0 24 24" version="1.1" xmlns="http://www.w3.org/2000/svg" xmlns:xlink="http://www.w3.org/1999/xlink">
    <!-- Generator: Sketch 41.2 (35397) - http://www.bohemiancoding.com/sketch -->
    <title>ic_ duplicate</title>
    <desc>Created with Sketch.</desc>
    <defs></defs>
    <g id="2-Approve-or-reject-task" stroke="none" stroke-width="1" fill="none" fill-rule="evenodd">
        <g id="A_Editor_2_description_feedback_No3" transform="translate(-888.000000, -806.000000)">
            <g id="Group-5" transform="translate(872.000000, 790.000000)">
                <g id="Icons/Tools/Merge-24x24" transform="translate(16.000000, 16.000000)">
                    <rect id="Rectangle-4-Copy-100" x="0" y="0" width="24" height="24"></rect>
                    <g id="Page-1" transform="translate(2.000000, 2.000000)" fill="#37454D">
                        <path d="M7,12 L7,10 L6,10 L6,12 C6,13.1 6.9,14 8,14 L10,14 L10,13 L8,13 C7.45,13 7,12.55 7,12" id="Fill-1"></path>
                        <path d="M19,12 C19,12.55 18.55,13 18,13 L14,13 L14,11 L13,11 L13,13 L11,13 L11,14 L13,14 L13,18 C13,18.55 12.55,19 12,19 L2,19 C1.45,19 1,18.55 1,18 L1,8 C1,7.45 1.45,7 2,7 L6,7 L6,9 L7,9 L7,7 L9,7 L9,6 L7,6 L7,2 C7,1.45 7.45,1 8,1 L18,1 C18.55,1 19,1.45 19,2 L19,12 Z M18,0 L8,0 C6.9,0 6,0.9 6,2 L6,6 L2,6 C0.9,6 0,6.9 0,8 L0,18 C0,19.1 0.9,20 2,20 L12,20 C13.1,20 14,19.1 14,18 L14,14 L18,14 C19.1,14 20,13.1 20,12 L20,2 C20,0.9 19.1,0 18,0 L18,0 Z" id="Fill-3"></path>
                        <path d="M12,6 L10,6 L10,7 L12,7 C12.55,7 13,7.45 13,8 L13,10 L14,10 L14,8 C14,6.9 13.1,6 12,6" id="Fill-5"></path>
                    </g>
                </g>
            </g>
        </g>
    </g>
</svg>